<?xml version="1.0" encoding="UTF-8" standalone="no"?>
<!-- Created with Inkscape (http://www.inkscape.org/) -->

<svg
   xmlns:dc="http://purl.org/dc/elements/1.1/"
   xmlns:cc="http://creativecommons.org/ns#"
   xmlns:rdf="http://www.w3.org/1999/02/22-rdf-syntax-ns#"
   xmlns:svg="http://www.w3.org/2000/svg"
   xmlns="http://www.w3.org/2000/svg"
   xmlns:xlink="http://www.w3.org/1999/xlink"
   xmlns:sodipodi="http://sodipodi.sourceforge.net/DTD/sodipodi-0.dtd"
   xmlns:inkscape="http://www.inkscape.org/namespaces/inkscape"
   width="45.95953"
   height="45.95953"
   id="svg4597"
   version="1.1"
   inkscape:version="0.48.2 r9819"
   sodipodi:docname="ICONA BOTTONE CANCELLA.svg">
  <defs
     id="defs4599">
    <linearGradient
       inkscape:collect="always"
       id="linearGradient2209">
      <stop
         style="stop-color:#ffe900;stop-opacity:1;"
         offset="0"
         id="stop2211" />
      <stop
         style="stop-color:#ffe900;stop-opacity:0;"
         offset="1"
         id="stop2213" />
    </linearGradient>
    <linearGradient
       inkscape:collect="always"
       xlink:href="#linearGradient2209"
       id="linearGradient3004"
       gradientUnits="userSpaceOnUse"
       gradientTransform="matrix(0.05996617,0,0,0.06154423,68.770714,408.99692)"
       x1="264.582"
       y1="296.37491"
       x2="380.6846"
       y2="553.74487" />
    <linearGradient
       inkscape:collect="always"
       xlink:href="#linearGradient2209"
       id="linearGradient3007"
       gradientUnits="userSpaceOnUse"
       gradientTransform="matrix(-0.05792294,0.0155204,-0.01592887,-0.05944717,121.63838,465.7873)"
       x1="249.48328"
       y1="262.87494"
       x2="272.02597"
       y2="427.54285" />
    <filter
       id="filter3387"
       inkscape:label="Drop shadow"
       width="1.5"
       height="1.5"
       x="-0.25"
       y="-0.25"
       color-interpolation-filters="sRGB">
      <feGaussianBlur
         id="feGaussianBlur3389"
         in="SourceAlpha"
         stdDeviation="1.4"
         result="blur" />
      <feColorMatrix
         id="feColorMatrix3391"
         result="bluralpha"
         type="matrix"
         values="1 0 0 0 0 0 1 0 0 0 0 0 1 0 0 0 0 0 0.99 0 " />
      <feOffset
         id="feOffset3393"
         in="bluralpha"
         dx="0"
         dy="2"
         result="offsetBlur" />
      <feMerge
         id="feMerge3395">
        <feMergeNode
           id="feMergeNode3397"
           in="offsetBlur" />
        <feMergeNode
           id="feMergeNode3399"
           in="SourceGraphic" />
      </feMerge>
    </filter>
  </defs>
  <sodipodi:namedview
     id="base"
     pagecolor="#ffffff"
     bordercolor="#666666"
     borderopacity="1.0"
     inkscape:pageopacity="0.0"
     inkscape:pageshadow="2"
     inkscape:zoom="3.8183766"
     inkscape:cx="58.862973"
     inkscape:cy="10.916272"
     inkscape:document-units="px"
     inkscape:current-layer="layer1"
     showgrid="false"
     fit-margin-top="0"
     fit-margin-left="0"
     fit-margin-right="0"
     fit-margin-bottom="0"
     inkscape:window-width="894"
     inkscape:window-height="710"
     inkscape:window-x="213"
     inkscape:window-y="20"
     inkscape:window-maximized="0" />
  <metadata
     id="metadata4602">
    <rdf:RDF>
      <cc:Work
         rdf:about="">
        <dc:format>image/svg+xml</dc:format>
        <dc:type
           rdf:resource="http://purl.org/dc/dcmitype/StillImage" />
        <dc:title />
      </cc:Work>
    </rdf:RDF>
  </metadata>
  <g
     inkscape:label="Layer 1"
     inkscape:groupmode="layer"
     id="layer1"
     transform="translate(-68.44881,-417.95385)">
    <g
       id="g3014"
       style="filter:url(#filter3387)">
      <path
         transform="matrix(0.05892707,0,0,0.05892707,68.783744,407.96362)"
         style="fill:#ff0000;fill-opacity:1;fill-rule:evenodd;stroke:#cb0000;stroke-width:19.95944977;stroke-linecap:butt;stroke-linejoin:miter;stroke-miterlimit:4;stroke-opacity:1;stroke-dasharray:none;stroke-dashoffset:0;marker-start:none;marker-mid:none;marker-end:none"
         sodipodi:type="arc"
         sodipodi:ry="250"
         sodipodi:rx="250"
         sodipodi:cy="559.50507"
         sodipodi:cx="384.28571"
         id="path3059"
         d="m 634.28571,559.50507 c 0,138.07118 -111.92882,250 -250,250 -138.07119,0 -250,-111.92882 -250,-250 0,-138.07119 111.92881,-250 250,-250 138.07118,0 250,111.92881 250,250 z" />
      <path
         style="fill:url(#linearGradient3007);fill-opacity:1;fill-rule:evenodd;stroke:none"
         sodipodi:nodetypes="cccc"
         id="path3061"
         d="m 95.009905,454.03874 c 3.657553,-0.98004 6.562335,-3.39093 8.301265,-6.49526 2.82433,-6.68617 -7.713292,8.96784 -16.417001,6.124 2.530209,0.92793 5.341022,1.11474 8.115736,0.37126 z"
         inkscape:connector-curvature="0" />
      <path
         style="fill:url(#linearGradient3004);fill-opacity:1;fill-rule:evenodd;stroke:none"
         sodipodi:nodetypes="ccccc"
         id="path3063"
         d="m 91.451047,427.23709 c -7.573147,0 -13.719139,6.30772 -13.719139,14.08015 0,1.05116 0.116652,2.07428 0.329814,3.0599 7.528606,-14.49218 15.640111,-5.36976 26.098418,-8.36232 -2.04234,-5.146 -6.963893,-8.77773 -12.709093,-8.77773 z"
         inkscape:connector-curvature="0" />
      <path
         style="font-size:660.22442627px;font-style:italic;font-variant:normal;font-weight:bold;font-stretch:normal;line-height:100%;writing-mode:lr-tb;text-anchor:start;opacity:0.73529412;fill:#ffffff;fill-opacity:1;stroke:none;font-family:Arial"
         sodipodi:nodetypes="cccc"
         id="path3065"
         d="m 87.151672,448.46584 -3.380624,-3.48394 11.934416,-11.58051 3.380624,3.48394"
         inkscape:connector-curvature="0" />
      <path
         style="font-size:550.38305664px;font-style:italic;font-variant:normal;font-weight:bold;font-stretch:normal;line-height:100%;writing-mode:lr-tb;text-anchor:start;fill:#ffffff;fill-opacity:1;stroke:none;font-family:Arial"
         sodipodi:nodetypes="cccc"
         id="path3067"
         d="m 87.178106,447.87749 -2.818188,-2.90432 11.319105,-10.98344 2.818188,2.90432"
         inkscape:connector-curvature="0" />
      <path
         inkscape:connector-curvature="0"
         d="m 98.960792,445.21051 -3.48394,3.38063 -11.580508,-11.93442 3.48394,-3.38063"
         id="path3010"
         sodipodi:nodetypes="cccc"
         style="font-size:660.22442627px;font-style:italic;font-variant:normal;font-weight:bold;font-stretch:normal;line-height:100%;writing-mode:lr-tb;text-anchor:start;opacity:0.73529412;fill:#ffffff;fill-opacity:1;stroke:none;font-family:Arial" />
      <path
         inkscape:connector-curvature="0"
         d="m 98.37244,445.18407 -2.904316,2.81819 -10.983435,-11.3191 2.904316,-2.81819"
         id="path3012"
         sodipodi:nodetypes="cccc"
         style="font-size:550.38305664px;font-style:italic;font-variant:normal;font-weight:bold;font-stretch:normal;line-height:100%;writing-mode:lr-tb;text-anchor:start;fill:#ffffff;fill-opacity:1;stroke:none;font-family:Arial" />
    </g>
  </g>
</svg>
